<svg width="23" height="24" viewBox="0 0 23 24" fill="none" xmlns="http://www.w3.org/2000/svg">
  <path d="M16.2641 9.58173C16.3302 9.59968 16.3985 9.60921 16.4661 9.60921C16.8001 9.60921 17.1056 9.38786 17.1993 9.05201C17.3106 8.64859 17.0702 8.23186 16.665 8.12194L13.3655 7.10968C12.9647 6.99941 12.5407 7.23639 12.4301 7.6394C12.3195 8.04278 12.5576 8.45955 12.9645 8.56987L16.2641 9.58173Z" fill="#BB6990"/>
  <path d="M11.1781 10.5996C11.0485 11.0085 11.2589 11.4488 11.6494 11.5853L14.8655 12.7851C14.9436 12.8122 15.0203 12.8244 15.0977 12.8248C15.4114 12.8266 15.7053 12.62 15.81 12.2929C15.94 11.8851 15.73 11.4442 15.3378 11.3078L12.123 10.1087C11.7301 9.97302 11.3092 10.1926 11.1781 10.5996Z" fill="#BB6990"/>
  <path d="M10.854 13.3229C10.4634 13.1917 10.0416 13.4058 9.91383 13.7993C9.78539 14.1898 9.99948 14.6134 10.3901 14.7415L13.6078 15.8881C13.6854 15.9144 13.7626 15.9257 13.8408 15.9257C14.1533 15.9257 14.4448 15.726 14.5478 15.4124C14.6762 15.0197 14.4629 14.5969 14.0722 14.4687L10.854 13.3229Z" fill="#BB6990"/>
  <path d="M10.738 6.16382C11.2135 6.16382 11.5992 6.54976 11.5992 7.02517C11.5992 7.50096 11.2135 7.88648 10.738 7.88648C10.2623 7.88648 9.87653 7.50091 9.87653 7.02517C9.87657 6.54976 10.2623 6.16382 10.738 6.16382Z" fill="#BB6990"/>
  <path d="M9.58968 9.26465C10.0655 9.26465 10.4508 9.62476 10.4508 10.0688C10.4508 10.5124 10.0655 10.8725 9.58968 10.8725C9.1139 10.8725 8.72816 10.5124 8.72816 10.0688C8.72816 9.6248 9.1139 9.26465 9.58968 9.26465Z" fill="#BB6990"/>
  <path d="M8.32629 12.3655C8.802 12.3655 9.18762 12.7257 9.18762 13.1702C9.18762 13.6138 8.802 13.9733 8.32629 13.9733C7.85062 13.9733 7.46496 13.6139 7.46496 13.1702C7.46496 12.7257 7.85062 12.3655 8.32629 12.3655Z" fill="#BB6990"/>
  <path fill-rule="evenodd" clip-rule="evenodd" d="M22.259 4.14358C22.5042 4.19289 22.7167 4.344 22.8455 4.5595C22.9735 4.77454 23.0037 5.03273 22.9273 5.2721C22.906 5.3392 20.7376 11.6657 18.6012 17.312C17.1224 21.2188 15.9422 23.6574 12.5838 23.7364C11.3388 23.7925 10.1932 23.2469 10.1914 23.2459L2.85312 19.9142C2.85312 19.9142 -0.615886 18.8284 0.0963861 14.3137L10.3935 18.9862C10.3935 18.9862 10.0632 22.3634 13.2016 21.9235C13.2645 22.0673 13.2986 22.1453 13.3138 22.1802C13.285 22.1142 13.2041 21.9288 13.205 21.9298C14.7407 21.6702 15.8226 21.0232 17.2266 17.312C18.837 13.0585 20.9377 7.48684 21.6437 5.29815L9.24857 2.2062L4.54884 14.6272L3.28914 14.1691L8.24835 1.57046C8.39676 1.16076 8.81978 0.92389 9.24857 1.00701L22.259 4.14358ZM0.88341 15.899C0.88341 16.7824 1.32512 17.2241 2.20853 18.1075C2.95741 18.8564 7.40941 20.8749 9.91407 22.0105C10.3641 22.2146 10.7512 22.3901 11.0427 22.5246C10.8066 22.2001 10.5487 21.9916 10.3048 21.7943C9.75498 21.3498 9.27586 20.9624 9.27586 19.4327L0.88341 15.899Z" fill="#BB6990"/>
</svg>
