<svg width="24" height="24" viewBox="0 0 24 24" fill="none" xmlns="http://www.w3.org/2000/svg">
  <path d="M17.9194 21.7523C17.9133 21.7223 17.9044 21.6928 17.8927 21.6647C17.881 21.6361 17.8664 21.6089 17.8495 21.5836C17.8322 21.5578 17.813 21.5339 17.791 21.5123C17.6822 21.4036 17.5205 21.3534 17.3681 21.3844C17.3381 21.39 17.3086 21.3994 17.2805 21.4111C17.2519 21.4228 17.2247 21.4373 17.1994 21.4542C17.1736 21.4711 17.1497 21.4908 17.1281 21.5123C17.1066 21.5339 17.0869 21.5578 17.07 21.5836C17.0531 21.6089 17.0386 21.6361 17.0269 21.6647C17.0152 21.6928 17.0063 21.7223 17.0002 21.7523C16.9941 21.7823 16.9908 21.8133 16.9908 21.8438C16.9908 21.967 17.041 22.088 17.1281 22.1752C17.1497 22.1967 17.1736 22.2164 17.1994 22.2333C17.2247 22.2502 17.2519 22.2647 17.2805 22.2764C17.3086 22.2881 17.3381 22.2975 17.3681 22.3036C17.3981 22.3097 17.4291 22.3125 17.4595 22.3125C17.5833 22.3125 17.7038 22.2624 17.791 22.1752C17.8786 22.088 17.9283 21.967 17.9283 21.8438C17.9283 21.8133 17.9255 21.7823 17.9194 21.7523Z" fill="#000"/>
  <path d="M21.3047 13.4609V8.19141C21.3047 3.67467 17.63 0 13.1133 0H10.8867C6.37 0 2.69532 3.67467 2.69532 8.19141V13.4609C1.37387 13.7967 0.422447 14.9901 0.422447 16.3911C0.422447 18.0588 1.77924 19.4156 3.44701 19.4156H4.66407V23.5312C4.66407 23.7901 4.87393 24 5.13282 24H18.8672C19.1261 24 19.336 23.7901 19.336 23.5312V19.4157H20.553C22.2208 19.4157 23.5776 18.0589 23.5776 16.3911C23.5776 14.9901 22.6262 13.7968 21.3047 13.4609ZM18.3985 23.0625H5.60157V22.3125H15.5106C15.7695 22.3125 15.9793 22.1026 15.9793 21.8438C15.9793 21.5849 15.7695 21.375 15.5106 21.375H5.60157V19.4157H9.3205L9.2784 19.5398C9.26087 19.5915 9.25286 19.6446 9.25361 19.6969C9.25548 19.8275 9.31206 19.9533 9.41162 20.0413C9.43154 20.0589 9.45315 20.075 9.4764 20.0894C9.52356 20.1184 9.57109 20.1465 9.61895 20.1738C9.63554 20.1833 9.65242 20.1921 9.66911 20.2013C9.70051 20.2187 9.73187 20.2363 9.76356 20.2529C9.78339 20.2633 9.8035 20.2729 9.82342 20.283C9.85229 20.2977 9.88107 20.3126 9.91014 20.3266C9.93151 20.3369 9.95312 20.3464 9.97464 20.3563C10.0026 20.3692 10.0304 20.3825 10.0585 20.3948C10.0811 20.4047 10.1039 20.4139 10.1265 20.4234C10.1538 20.4349 10.181 20.4467 10.2085 20.4577C10.232 20.467 10.2557 20.4756 10.2793 20.4846C10.3062 20.4948 10.333 20.5054 10.36 20.5151C10.3841 20.5238 10.4084 20.5316 10.4326 20.5399C10.4593 20.549 10.486 20.5584 10.5129 20.5671C10.5377 20.575 10.5626 20.5822 10.5874 20.5897C10.614 20.5978 10.6404 20.6061 10.667 20.6137C10.6922 20.6208 10.7176 20.6272 10.7428 20.6339C10.7693 20.6409 10.7958 20.6483 10.8224 20.6549C10.8478 20.6611 10.8735 20.6667 10.899 20.6726C10.9255 20.6787 10.952 20.685 10.9786 20.6906C11.0043 20.6961 11.0302 20.7008 11.056 20.7058C11.0825 20.7109 11.1091 20.7163 11.1357 20.721C11.1616 20.7255 11.1875 20.7294 11.2135 20.7335C11.2401 20.7377 11.2668 20.7421 11.2935 20.7459C11.3195 20.7496 11.3456 20.7525 11.3716 20.7558C11.3984 20.7591 11.4251 20.7626 11.4519 20.7654C11.478 20.7682 11.5041 20.7703 11.5302 20.7726C11.557 20.775 11.5839 20.7776 11.6107 20.7795C11.6368 20.7814 11.6629 20.7826 11.689 20.784C11.716 20.7855 11.743 20.7872 11.7699 20.7882C11.7959 20.7892 11.822 20.7895 11.848 20.7901C11.8751 20.7907 11.9021 20.7914 11.9292 20.7915C11.9347 20.7915 11.9401 20.7918 11.9455 20.7918C11.9675 20.7918 11.9894 20.791 12.0114 20.7907C12.0363 20.7903 12.0612 20.7902 12.0861 20.7894C12.1138 20.7886 12.1414 20.7871 12.169 20.7858C12.1938 20.7846 12.2185 20.7836 12.2433 20.7821C12.271 20.7803 12.2988 20.7779 12.3265 20.7756C12.3511 20.7736 12.3756 20.7719 12.4002 20.7694C12.428 20.7667 12.4557 20.7633 12.4835 20.7601C12.5079 20.7573 12.5324 20.7547 12.5568 20.7515C12.5847 20.7478 12.6125 20.7434 12.6403 20.7392C12.6645 20.7356 12.6887 20.7323 12.7127 20.7283C12.7408 20.7236 12.7688 20.7182 12.7968 20.713C12.8206 20.7086 12.8445 20.7045 12.8682 20.6997C12.8963 20.6941 12.9242 20.6877 12.9523 20.6815C12.9758 20.6763 12.9994 20.6715 13.0229 20.6659C13.051 20.6593 13.079 20.6519 13.1071 20.6447C13.1303 20.6387 13.1536 20.6332 13.1767 20.6268C13.2048 20.6191 13.2328 20.6107 13.2609 20.6025C13.2837 20.5958 13.3067 20.5895 13.3295 20.5824C13.3579 20.5737 13.3861 20.5641 13.4143 20.5547C13.4365 20.5474 13.4589 20.5404 13.481 20.5328C13.5096 20.5229 13.538 20.5121 13.5664 20.5016C13.5881 20.4937 13.6098 20.4861 13.6314 20.4778C13.6603 20.4667 13.6889 20.4547 13.7176 20.443C13.7385 20.4345 13.7595 20.4263 13.7803 20.4175C13.81 20.4049 13.8394 20.3914 13.8689 20.3781C13.8884 20.3693 13.9082 20.361 13.9276 20.3519C13.9584 20.3376 13.9889 20.3223 14.0194 20.3073C14.0373 20.2984 14.0555 20.2901 14.0733 20.281C14.1068 20.264 14.1399 20.246 14.1731 20.2282C14.1878 20.2203 14.2026 20.2128 14.2172 20.2048C14.2649 20.1785 14.3122 20.1513 14.3592 20.1232L14.4997 20.0394C14.5172 20.0289 14.5336 20.0171 14.5493 20.0047C14.5654 19.992 14.5809 19.9787 14.595 19.9642C14.7157 19.8404 14.7609 19.6565 14.7032 19.4865L14.6792 19.4158H18.3985V23.0625ZM13.0429 17.5077L13.6921 19.4229C13.592 19.4753 13.4904 19.5229 13.3873 19.5657C12.391 19.9798 11.2667 19.9471 10.292 19.4698L10.4183 19.0973L10.957 17.5077C10.9676 17.4765 10.9748 17.4446 10.9786 17.4124C10.9805 17.3963 10.9816 17.3802 10.9818 17.3641C10.983 17.2835 10.9634 17.203 10.9237 17.131C10.9099 17.106 10.8936 17.0828 10.8757 17.061C10.8115 16.9823 10.7232 16.9257 10.6231 16.9015C7.85218 16.233 5.91695 13.6887 5.91695 10.7145V9.23227L10.4189 5.91122C11.1349 6.26836 12.9269 7.15462 14.6635 7.95286C14.76 7.9972 14.8563 8.04127 14.9522 8.085C15.0482 8.12869 15.1438 8.17205 15.2388 8.21484C15.4764 8.32195 15.7104 8.42602 15.9379 8.52544C16.029 8.56519 16.1189 8.60419 16.2077 8.64239C16.252 8.66147 16.2961 8.68031 16.3398 8.69897C16.471 8.75489 16.5992 8.80875 16.7237 8.86027C16.7651 8.87742 16.8062 8.89434 16.8469 8.91094C16.9283 8.94417 17.0079 8.97628 17.0856 9.00717C17.4741 9.16162 17.8146 9.28547 18.083 9.36548V10.7144C18.083 13.6887 16.1478 16.2329 13.3769 16.9015C13.249 16.9324 13.1398 17.0157 13.0763 17.131C13.0127 17.2463 13.0007 17.383 13.0429 17.5077ZM20.553 18.4782H18.8672H14.3618L14.0892 17.6739C15.4135 17.2448 16.6032 16.4052 17.4785 15.2728C18.2244 14.3078 18.7188 13.156 18.9195 11.9431C18.9279 11.8926 18.9357 11.8419 18.943 11.7912C18.9577 11.6897 18.9703 11.5878 18.9809 11.4856C19.0072 11.2302 19.0206 10.9727 19.0206 10.7145V8.99559C19.0206 8.75794 18.8428 8.55792 18.6068 8.53008C17.7662 8.43098 13.2386 6.27825 10.5821 4.94461C10.4244 4.86539 10.2356 4.88152 10.0936 4.98633L5.17 8.61839C5.05023 8.70675 4.97954 8.84677 4.97954 8.99559V10.7145C4.97954 10.9727 4.9929 11.2302 5.01925 11.4856C5.02979 11.5878 5.0424 11.6897 5.05707 11.7912C5.06443 11.8419 5.07226 11.8926 5.0806 11.9431C5.28123 13.156 5.77576 14.3079 6.52154 15.2728C7.12328 16.0513 7.87365 16.6914 8.71422 17.1549C8.79062 17.197 8.86778 17.2377 8.94564 17.2769C9.10136 17.3553 9.25989 17.4277 9.42086 17.4939C9.58182 17.5602 9.74528 17.6203 9.91084 17.6739L9.63826 18.4781H5.13282H3.44701C2.29618 18.4781 1.35995 17.5419 1.35995 16.3911C1.35995 15.3253 2.15762 14.4337 3.21545 14.3171C3.45301 14.2909 3.63287 14.0902 3.63287 13.8512V8.19141C3.63282 4.19156 6.88689 0.9375 10.8867 0.9375H13.1133C17.1131 0.9375 20.3672 4.19156 20.3672 8.19141V13.8512C20.3672 14.0903 20.547 14.291 20.7846 14.3172C21.8424 14.4337 22.6401 15.3253 22.6401 16.3911C22.6401 17.5419 21.7038 18.4782 20.553 18.4782Z" fill="#000"/>
  <path d="M14.46 13.2992C14.3087 13.0891 14.0158 13.0415 13.8057 13.1928C12.7257 13.9707 11.2743 13.9707 10.1942 13.1928C9.98408 13.0415 9.6912 13.0891 9.53989 13.2992C9.38858 13.5093 9.43625 13.8023 9.64634 13.9536C10.3503 14.4605 11.1751 14.714 12 14.714C12.8248 14.714 13.6497 14.4605 14.3536 13.9536C14.5637 13.8023 14.6113 13.5093 14.46 13.2992Z" fill="#000"/>
  <path d="M16.3316 9.77728C15.5622 9.22317 14.5282 9.22317 13.7588 9.77728C13.5488 9.92859 13.5011 10.2215 13.6524 10.4316C13.8038 10.6417 14.0967 10.6893 14.3067 10.5381C14.7484 10.2199 15.342 10.2199 15.7837 10.5381C15.8666 10.5977 15.9623 10.6265 16.0572 10.6265C16.2028 10.6265 16.3464 10.5588 16.438 10.4316C16.5893 10.2215 16.5417 9.92859 16.3316 9.77728Z" fill="#000"/>
  <path d="M10.2411 9.7773C9.47165 9.22318 8.43773 9.22314 7.66832 9.7773C7.45828 9.92861 7.4106 10.2215 7.56192 10.4316C7.71328 10.6417 8.0062 10.6893 8.21625 10.538C8.6579 10.2199 9.25148 10.2198 9.69318 10.538C9.7761 10.5978 9.87187 10.6265 9.96675 10.6265C10.1124 10.6265 10.2559 10.5588 10.3475 10.4316C10.4988 10.2215 10.4512 9.92861 10.2411 9.7773Z" fill="#000"/>
</svg>
