<svg width="24" height="23" viewBox="0 0 24 23" fill="none" xmlns="http://www.w3.org/2000/svg">
  <path d="M0 8.28033C0 10.6154 1.84778 13.2771 4.26456 13.7168V22.08C4.26456 22.5887 4.64589 23 5.11764 23H18.7678C19.2396 23 19.6209 22.5887 19.6209 22.08V13.7168C22.0368 13.2761 23.8846 11.0101 23.8846 8.28033C23.8846 5.23593 21.589 2.94937 18.7661 2.94937L16.8356 2.76011C15.7547 1.09392 13.9658 0 11.9423 0C9.91879 0 8.12903 1.09392 7.04902 2.76011L4.86538 3.09615C2.21154 3.53846 0 6.19231 0 8.28033ZM5.75 20.7549H18.5769V21.6731H5.75V20.7549ZM5.53073 3.98077H6.63462C6.47338 4.56499 5.81307 5.55288 5.81307 6.19231C5.81307 6.70109 6.16286 7.07692 6.63462 7.07692C7.10637 7.07692 7.07692 6.70109 7.07692 6.19231C7.07692 3.65577 9.59036 1.32692 11.9423 1.32692C14.2943 1.32692 16.4218 3.4758 16.4218 6.01234C16.4218 6.52112 16.5891 6.93238 17.0608 6.93238C17.5326 6.93238 17.9139 6.52112 17.9139 6.01234C17.9139 5.37291 17.8243 4.75649 17.6622 4.17227H18.7661C20.648 4.17227 23 6.25073 23 8.28033C23 10.3072 21.34 12.3809 19.4615 12.3846C19.2261 12.3846 18.9804 12.504 18.826 12.6714C18.6708 12.838 18.5752 13.0689 18.5752 13.3228C18.5752 13.3256 18.5769 13.3283 18.5769 13.332V19.5324H5.30769V13.2711C5.30769 13.2692 5.30855 13.2683 5.30855 13.2665C5.30855 13.1386 5.28466 13.0171 5.24115 12.9067C5.11234 12.5764 5.02937 12.3446 4.67534 12.3446L4.67022 12.3455C2.79088 12.3418 1.13731 10.3081 1.13731 8.28033C1.13731 6.25073 3.64882 3.98077 5.53073 3.98077Z" fill="#000000"/>
</svg>
