<svg width="155" height="155" viewBox="0 0 155 155" fill="none" xmlns="http://www.w3.org/2000/svg">
  <path d="M0.664975 77.455C0.664975 57.0252 0.696916 36.5995 0.64502 16.1697C0.64502 9.80562 2.99634 4.795 8.76487 1.92437C11.0162 0.792546 13.4913 0.176099 16.0105 0.119746C45.5517 -2.93795e-05 75.093 0.0398959 104.634 0.0398959C115.988 0.0398959 127.345 0.00396315 138.699 0.0398959C144.515 0.063851 149.198 2.38351 152.355 7.38215C154.072 10.1011 154.463 13.1633 154.459 16.3374C154.427 46.9468 154.413 77.5561 154.415 108.166C154.415 118.342 154.391 128.527 154.415 138.704C154.415 145.14 151.593 149.955 145.776 152.55C143.329 153.644 140.375 154.016 137.653 154.024C100.596 154.111 63.5373 154.129 26.4776 154.076C23.2161 154.076 19.9546 154.076 16.6971 154.076C9.06427 154.032 3.95443 150.694 1.38354 143.615C0.66497 141.619 0.744817 139.291 0.740825 137.115C0.698243 117.217 0.69026 97.3205 0.716874 77.427L0.664975 77.455ZM9.28384 77.1555C9.28384 97.7809 9.28384 118.409 9.28384 139.04C9.28384 142.553 11.3477 144.869 14.8448 145.308C15.7058 145.39 16.5711 145.418 17.4356 145.392H113.604C121.988 145.392 130.371 145.296 138.754 145.42C142.683 145.476 145.94 142.92 145.896 138.341C145.752 116.981 145.82 95.621 145.82 74.261C145.82 54.7695 145.729 35.2739 145.888 15.7824C145.924 11.6542 142.814 8.77954 138.878 8.78752C97.9675 8.8727 57.0568 8.8727 16.1462 8.78752C12.2939 8.78752 9.17605 11.6062 9.21198 15.8463C9.37166 36.288 9.28384 56.7138 9.28384 77.1396V77.1555Z" fill="#000"/>
  <path d="M77.54 21.5597C94.8256 21.5597 112.107 21.5597 129.385 21.5597C131.497 21.5597 133.137 22.2384 134.175 24.055C134.493 24.6144 134.672 25.2421 134.697 25.8851C134.722 26.5281 134.592 27.1677 134.318 27.7501C134.044 28.3324 133.635 28.8403 133.123 29.2311C132.612 29.622 132.015 29.8843 131.381 29.9959C130.267 30.1801 129.14 30.2749 128.012 30.2794C94.1642 30.2953 60.3142 30.2887 26.4615 30.2594C25.0483 30.2594 23.4834 30.1117 22.2619 29.4888C20.5732 28.6305 20.1101 26.8817 20.5054 25.0132C20.8606 23.3444 22.677 21.7753 24.4375 21.6116C25.0962 21.5517 25.7669 21.5797 26.4336 21.5797L77.54 21.5597Z" fill="#000"/>
  <path d="M77.532 132.292C60.3662 132.292 43.2243 132.336 26.0744 132.224C24.4775 132.224 22.5374 131.606 21.4795 130.552C20.6491 129.729 20.5533 127.697 20.8288 126.347C21.1881 124.587 22.8967 123.84 24.6212 123.633C25.8804 123.537 27.1441 123.516 28.4057 123.569H127.944C128.674 123.569 129.409 123.549 130.139 123.593C132.718 123.748 134.531 125.433 134.658 127.737C134.778 130.132 133.261 131.841 130.583 132.236C129.92 132.307 129.252 132.327 128.587 132.296H77.532V132.292Z" fill="#000"/>
</svg>
