<svg width="50" height="46" viewBox="0 0 50 46" fill="none" xmlns="http://www.w3.org/2000/svg">
  <circle opacity="0.2" cx="34.5" cy="29.5" r="15.5" fill="#000000"/>
  <path d="M14.1349 11.9596C15.6691 12.4988 16.8526 13.3597 17.6832 14.6852C17.765 14.8194 18.1695 14.8812 18.3567 14.8067C21.8964 13.4258 25.0272 14.3272 27.8761 16.5306C28.3366 16.8865 28.541 16.9142 29.0058 16.5562C30.6024 15.3245 32.354 14.3741 34.4154 14.1695C38.3338 13.7816 41.1138 15.5461 42.9966 18.8044C44.6449 21.6536 45.1484 24.799 44.9612 28.0317C44.6772 32.8563 43.0806 37.2355 40.0466 41.0458C38.2154 43.3473 36.0292 45.2737 33.0167 45.766C31.5105 46.0132 29.8988 45.7255 28.3366 45.6957C27.5512 45.6807 26.7443 45.5934 25.9826 45.7276C21.2487 46.5587 17.907 44.4107 15.1936 40.8902C14.5481 40.0549 14.0295 39.1257 13.3259 38.0453C12.6674 39.7054 12.0606 41.2418 11.4495 42.774C11.1203 43.5923 10.8578 44.4511 10.4274 45.214C9.82494 46.2795 8.82006 46.2433 8.18744 45.1863C8.11257 45.0661 8.04642 44.9408 7.98948 44.8113C4.58753 36.8285 1.31898 28.7818 0.13551 20.1342C-0.357245 16.5115 0.350687 13.7411 4.68436 11.8914C3.16736 10.8451 2.3669 9.39814 1.80528 7.76366C0.963942 5.3066 1.47822 4.35404 4.03452 3.88948C4.28996 3.86189 4.53371 3.76874 4.74165 3.61924C4.9496 3.46974 5.11453 3.26907 5.22015 3.03708C6.02491 1.52406 7.43002 0.654607 8.99435 0.057924C9.17905 0.00271231 9.37368 -0.0119716 9.56468 0.0148944C9.75569 0.0417604 9.93849 0.109531 10.1004 0.213488C11.2408 1.0872 12.4006 1.96518 13.3861 2.99872C13.7907 3.42492 14.0854 3.78293 14.6901 3.89161C17.0807 4.31781 17.6445 5.22989 16.9903 7.51433C16.5363 9.11685 15.8176 10.2484 14.1349 11.9596ZM13.1387 28.5815C13.2011 29.2208 13.2527 30.1094 13.3797 30.9832C13.9413 34.819 15.2689 38.3351 18.0103 41.1715C20.0351 43.2663 22.4408 44.4554 25.5264 43.8246C26.5427 43.6091 27.5926 43.6012 28.6121 43.8012C32.6724 44.6834 35.7409 43.1384 38.2434 40.138C38.9763 39.2677 39.6247 38.3309 40.18 37.34C42.8955 32.4386 43.9262 27.2816 42.2048 21.8113C41.5033 19.5822 40.2682 17.6942 38.082 16.6116C35.672 15.4161 32.3411 16.1598 29.8794 18.3697C28.4765 19.6291 28.4765 19.6291 27.0821 18.4166C26.8949 18.2525 26.7099 18.0841 26.5141 17.9286C22.6796 14.9175 18.0748 15.7294 15.4669 19.8401C13.8186 22.4463 13.2441 25.3253 13.1387 28.5858V28.5815ZM9.34509 42.4757C10.2058 40.5727 11.144 38.5589 11.9853 36.5089C12.1928 35.9317 12.2309 35.308 12.0951 34.7103C11.5055 31.9975 10.9675 29.2847 11.3893 26.4974C11.6625 24.6903 12.0348 22.896 12.3102 21.3957C11.8992 20.863 11.4388 20.4624 11.2903 19.968C11.2343 19.7847 11.9358 19.0964 12.2414 19.1347C13.4098 19.286 13.9843 18.6723 14.5438 17.8348C14.873 17.3362 15.4045 16.9675 15.738 16.4752C15.9015 16.2408 15.9876 15.7613 15.8564 15.5482C15.4863 14.9554 14.974 14.4624 14.3651 14.1129C13.7562 13.7634 13.0695 13.5684 12.3662 13.5451C10.3708 13.4279 8.36993 13.4364 6.37565 13.5707C4.51867 13.6836 2.58207 14.7512 2.09793 17.187C1.72137 19.1049 2.27652 20.831 2.60574 22.6275C3.88605 29.6214 6.32401 36.2276 9.34509 42.4757ZM11.5464 11.1626C13.2678 10.2868 14.3264 9.20848 14.8859 7.6635C15.4841 6.00131 15.3033 5.68805 13.4959 5.69232C12.5362 5.69232 11.9896 5.47922 11.8175 4.41371C11.6195 3.17559 10.5436 2.57039 9.49356 2.09304C8.94056 1.84371 7.02118 3.27149 6.91144 4.16225C6.73069 5.53462 5.97327 5.81805 4.78549 5.68592C4.53489 5.65532 4.28116 5.70857 4.06464 5.83723C3.82795 6.00344 3.52455 6.28474 3.5181 6.52554C3.46645 8.14298 5.20078 10.3614 6.88777 10.8941C6.70917 10.2122 5.52355 9.77533 6.324 8.90375C7.15889 7.99168 7.72481 8.98899 8.41337 9.39601C8.41337 8.50099 8.44135 7.7253 8.40262 6.95174C8.36819 6.24851 8.564 5.69658 9.34294 5.70723C10.0767 5.70723 10.3672 6.23786 10.3564 6.94322C10.3435 7.72956 10.3564 8.51591 10.3564 9.42372C10.9503 8.89523 11.3419 7.87234 12.2069 8.66721C13.1903 9.58994 12.024 10.1909 11.5464 11.1626Z" fill="#000000"/>
  <path d="M28.7562 6.20764C29.5158 4.46874 30.4776 2.92163 32.2227 2.05004C32.6294 1.83694 33.1006 1.62384 33.5245 1.64089C33.9054 1.66433 34.4713 1.96054 34.5724 2.26314C34.6736 2.56575 34.3572 3.24767 34.0797 3.34783C30.6842 4.5689 30.2452 7.53526 29.7352 10.442C29.5782 11.3455 29.6427 12.2853 29.4942 13.191C29.4361 13.5341 29.0833 14.0583 28.8229 14.0839C28.4657 14.1201 27.8374 13.8409 27.7341 13.5511C27.5189 12.9523 27.1424 12.9608 26.6776 12.9416C24.7883 12.8713 23.0002 12.4366 21.4186 11.3732C19.226 9.90495 18.4126 7.67165 18.1243 5.21246C18.0199 4.33254 18.0199 3.44354 18.1243 2.56362C18.1673 2.21839 18.6192 1.66646 18.914 1.64941C22.1416 1.43631 25.2273 1.80071 27.5211 4.43891C27.9626 5.00751 28.3748 5.59784 28.7562 6.20764ZM26.5485 10.9875C26.9465 10.9214 27.6244 11.3349 27.5878 10.3482C27.4565 6.01159 24.9067 3.5524 20.7021 3.49913C20.1233 3.49913 20.0006 3.69944 20.0006 4.23859C20.0114 8.27046 22.458 10.8319 26.5485 10.9875Z" fill="#000000"/>
  <path d="M6.37991 22.2584C6.12385 22.2584 5.81185 22.3522 5.63755 22.2392C5.31264 22.0261 4.94683 21.7342 4.83279 21.3868C4.76393 21.1737 5.09315 20.6047 5.29757 20.5749C6.04778 20.4677 6.80911 20.4605 7.56124 20.5536C7.73553 20.5749 7.99159 21.1524 7.95286 21.4316C7.80869 22.333 7.07709 22.3159 6.37991 22.2584Z" fill="#000000"/>
  <path d="M8.9728 31.4047C9.69795 31.3578 10.4575 31.4047 10.4468 32.3274C10.436 33.2502 9.68934 33.361 8.90825 33.3439C7.71401 33.3184 7.07709 32.9028 7.40201 32.1825C7.61719 31.7222 8.31866 31.4857 8.80496 31.1511L8.9728 31.4047Z" fill="#000000"/>
  <path d="M6.36924 26.6377C6.79959 26.7016 7.27728 26.6377 7.53119 26.8508C7.7851 27.0639 8.05838 27.7245 7.93142 27.8822C7.64954 28.2317 7.1159 28.5939 6.70061 28.579C6.10887 28.5556 5.50422 28.2423 4.97919 27.9397C4.88882 27.8886 5.05235 27.1214 5.2955 26.8891C5.53865 26.6568 6.02495 26.7016 6.36924 26.6377Z" fill="#000000"/>
</svg>
