<svg width="84" height="84" viewBox="0 0 84 84" fill="none" xmlns="http://www.w3.org/2000/svg">
  <g filter="url(#filter0_d)">
    <circle cx="41.8551" cy="38.0537" r="25.7238" fill="white"/>
  </g>
  <path d="M42.0333 26.8496C45.75 26.8496 46.2146 26.8496 47.7245 26.9657C51.5573 27.0819 53.2995 28.9402 53.4156 32.6569C53.5318 34.1668 53.5318 34.5153 53.5318 38.232C53.5318 41.9486 53.5318 42.4132 53.4156 43.807C53.2995 47.5237 51.4412 49.382 47.7245 49.4982C46.2146 49.6143 45.8661 49.6143 42.0333 49.6143C38.3166 49.6143 37.852 49.6143 36.4583 49.4982C32.6254 49.382 30.8832 47.5237 30.7671 43.807C30.6509 42.2971 30.6509 41.9486 30.6509 38.232C30.6509 34.5153 30.6509 34.0507 30.7671 32.6569C30.8832 28.9402 32.7416 27.0819 36.4583 26.9657C37.852 26.8496 38.3166 26.8496 42.0333 26.8496ZM42.0333 24.2944C38.2005 24.2944 37.7359 24.2944 36.3421 24.4105C31.2317 24.6428 28.4441 27.4303 28.2118 32.5408C28.0957 33.9345 28.0957 34.3991 28.0957 38.232C28.0957 42.0648 28.0957 42.5294 28.2118 43.9231C28.4441 49.0336 31.2317 51.8211 36.3421 52.0534C37.7359 52.1695 38.2005 52.1695 42.0333 52.1695C45.8661 52.1695 46.3307 52.1695 47.7245 52.0534C52.8349 51.8211 55.6224 49.0336 55.8547 43.9231C55.9709 42.5294 55.9709 42.0648 55.9709 38.232C55.9709 34.3991 55.9709 33.9345 55.8547 32.5408C55.6224 27.4303 52.8349 24.6428 47.7245 24.4105C46.3307 24.2944 45.8661 24.2944 42.0333 24.2944ZM42.0333 31.0309C38.0843 31.0309 34.8322 34.283 34.8322 38.232C34.8322 42.1809 38.0843 45.433 42.0333 45.433C45.9823 45.433 49.2344 42.1809 49.2344 38.232C49.2344 34.283 45.9823 31.0309 42.0333 31.0309ZM42.0333 42.8778C39.4781 42.8778 37.3874 40.7872 37.3874 38.232C37.3874 35.6767 39.4781 33.5861 42.0333 33.5861C44.5885 33.5861 46.6791 35.6767 46.6791 38.232C46.6791 40.7872 44.5885 42.8778 42.0333 42.8778ZM49.4667 29.1725C48.5375 29.1725 47.8406 29.8694 47.8406 30.7986C47.8406 31.7278 48.5375 32.4246 49.4667 32.4246C50.3958 32.4246 51.0927 31.7278 51.0927 30.7986C51.0927 29.8694 50.3958 29.1725 49.4667 29.1725Z" fill="#BB6990"/>
  <defs>
    <filter id="filter0_d" x="0.131348" y="0.329895" width="83.4476" height="83.4476" filterUnits="userSpaceOnUse" color-interpolation-filters="sRGB">
      <feFlood flood-opacity="0" result="BackgroundImageFix"/>
      <feColorMatrix in="SourceAlpha" type="matrix" values="0 0 0 0 0 0 0 0 0 0 0 0 0 0 0 0 0 0 127 0"/>
      <feOffset dy="4"/>
      <feGaussianBlur stdDeviation="8"/>
      <feColorMatrix type="matrix" values="0 0 0 0 0 0 0 0 0 0 0 0 0 0 0 0 0 0 0.1 0"/>
      <feBlend mode="normal" in2="BackgroundImageFix" result="effect1_dropShadow"/>
      <feBlend mode="normal" in="SourceGraphic" in2="effect1_dropShadow" result="shape"/>
    </filter>
  </defs>
</svg>
