<svg width="352" height="474" viewBox="0 0 352 474" fill="none" xmlns="http://www.w3.org/2000/svg">
  <g filter="url(#filter0_d)">
    <path fill-rule="evenodd" clip-rule="evenodd" d="M31 12.9789C22.7157 12.9789 16 19.6947 16 27.979V438.979C16 447.263 22.7157 453.979 31 453.979H267.033C290.697 431.716 317.977 406.465 336 390.849V27.9789C336 19.6947 329.284 12.9789 321 12.9789H31Z" fill="#F5A0C5"/>
  </g>
  <g filter="url(#filter1_d)">
    <path d="M265.316 406.846C264.884 394.752 275.208 385.048 287.252 386.227L336 391L267 453.979L265.316 406.846Z" fill="#BB6990"/>
  </g>
  <defs>
    <filter id="filter0_d" x="0" y="0.978943" width="352" height="473" filterUnits="userSpaceOnUse" color-interpolation-filters="sRGB">
      <feFlood flood-opacity="0" result="BackgroundImageFix"/>
      <feColorMatrix in="SourceAlpha" type="matrix" values="0 0 0 0 0 0 0 0 0 0 0 0 0 0 0 0 0 0 127 0"/>
      <feOffset dy="4"/>
      <feGaussianBlur stdDeviation="8"/>
      <feColorMatrix type="matrix" values="0 0 0 0 0 0 0 0 0 0 0 0 0 0 0 0 0 0 0.1 0"/>
      <feBlend mode="normal" in2="BackgroundImageFix" result="effect1_dropShadow"/>
      <feBlend mode="normal" in="SourceGraphic" in2="effect1_dropShadow" result="shape"/>
    </filter>
    <filter id="filter1_d" x="239.303" y="360.13" width="102.697" height="99.8487" filterUnits="userSpaceOnUse" color-interpolation-filters="sRGB">
      <feFlood flood-opacity="0" result="BackgroundImageFix"/>
      <feColorMatrix in="SourceAlpha" type="matrix" values="0 0 0 0 0 0 0 0 0 0 0 0 0 0 0 0 0 0 127 0"/>
      <feOffset dx="-10" dy="-10"/>
      <feGaussianBlur stdDeviation="8"/>
      <feColorMatrix type="matrix" values="0 0 0 0 0.733333 0 0 0 0 0.411765 0 0 0 0 0.564706 0 0 0 0.15 0"/>
      <feBlend mode="normal" in2="BackgroundImageFix" result="effect1_dropShadow"/>
      <feBlend mode="normal" in="SourceGraphic" in2="effect1_dropShadow" result="shape"/>
    </filter>
  </defs>
</svg>
