{
  "appId": "sk.invelogy.rimka",
  "appName": "rimka_app",
  "bundledWebRuntime": false,
  "npmClient": "npm",
  "webDir": "www",
  "plugins": {
    "SplashScreen": {
      "launchShowDuration": 0,
      "backgroundColor": "#ffffff"
    }
  },
  "cordova": {},
  "ios": {
    "minVersion": "12.0"
  }
}
